CrossFit Games — cf_games • crossfit
…
    Examples

library(tidyr)
library(dplyr)

games <- cf_games(2021)

# 15 workouts in the 2021 CrossFit games
games %>%
  unnest_wider(entrant) %>%
  hoist(scores, two = 2) %>%
  select(competitorName, two) %>%
  unnest_wider(two) %>%
  select(competitorName, score, breakdown)
#> # A tibble: 40 × 3
#>    competitorName            score breakdown
#>    <chr>                     <chr> <chr>    
#>  1 Justin Medeiros           58    58 pts   
#>  2 Patrick Vellner           100   100 pts  
#>  3 Brent Fikowski            82    82 pts   
#>  4 Björgvin Karl Guðmundsson 76    76 pts   
#>  5 Saxon Panchik             61    61 pts   
#>  6 Jonne Koski               70    70 pts   
#>  7 Guilherme Malheiros       85    85 pts   
#>  8 Alex Vigneault            52    52 pts   
#>  9 Lazar Đukić               64    64 pts   
#> 10 Noah Ohlsen               40    40 pts   
#> # … with 30 more rows
…
