CrossFit Open — cf_open • crossfit
…
    Examples

library(tidyr)
library(dplyr)

top_100 <- cf_open(2022, n_pages = 1)

top_100 %>%
  unnest_wider(entrant) %>%
  hoist(scores, one = 1) %>%
  select(competitorName, one) %>%
  unnest_wider(one) %>%
  select(competitorName, score, breakdown)
#> # A tibble: 100 × 3
#>    competitorName  score   breakdown                                            
#>    <chr>           <chr>   <chr>                                                
#>  1 Saxon Panchik   3800000 "12 rounds +\n3 wall walks\n12 db snatches\n5 box ju…
#>  2 Matt Poulin     3640000 "12 rounds +\n3 wall walks\n1 db snatches\n"         
#>  3 Justin Medeiros 3720000 "12 rounds +\n3 wall walks\n9 db snatches\n"         
#>  4 Colten Mertens  3610000 "12 rounds +\n1 wall walk\n"                         
#>  5 Phil Toon       3630000 "12 rounds +\n3 wall walks\n"                        
#>  6 Victor Ljungdal 3900000 "13 rounds\n"                                        
#>  7 Jay Crouch      3630000 "12 rounds +\n3 wall walks\n"                        
#>  8 Scott Tetlow    3500000 "11 rounds +\n3 wall walks\n12 db snatches\n5 box ju…
#>  9 Cédric Lapointe 3880000 "12 rounds +\n3 wall walks\n12 db snatches\n13 box j…
#> 10 Dallin Pepper   3690000 "12 rounds +\n3 wall walks\n6 db snatches\n"         
#> # … with 90 more rows
…
